Final Project
…
pac <- pac %>%
  separate(country_parent, into = c('country', 'parent_company'), sep = '/')

pac <- pac %>%
  mutate(
    total = as.numeric(gsub("[$,]", "", total)),
    dems = as.numeric(gsub("[$,]", "", dems)),
    repubs = as.numeric(gsub("[$,]", "", repubs))
  )

pac

# A tibble: 2,404 × 7
   name                          country parent_company total  dems repubs  year
   <chr>                         <chr>   <chr>          <dbl> <dbl>  <dbl> <dbl>
 1 7-Eleven                      Japan   Ito-Yokado      8500  1500   7000  2000
 2 ABB Group                     Switze… Asea Brown Bo… 46000 17000  28500  2000
 3 Accenture                     UK      Accenture plc  75984 23000  52984  2000
 4 ACE INA                       UK      ACE Group      38500 12500  26000  2000
 5 Acuson Corp (Siemens AG)      Germany Siemens AG      2000  2000      0  2000
 6 Adtranz (DaimlerChrysler)     Germany DaimlerChrysl… 10500 10000    500  2000
 7 AE Staley Manufacturing (Tat… UK      Tate & Lyle    24000 10000  14000  2000
 8 AEGON USA (AEGON NV)          Nether… Aegon NV       58250 10500  47750  2000
 9 AIM Management Group          UK      AMVESCAP       25000 10000  15000  2000
10 Air Liquide America           France  L'Air Liquide…     0     0      0  2000
# ℹ 2,394 more rows
…
